[
    {
        "id": 1,
        "user": "tecno",
        "email": "tecno@bibisteam.com"
    },
    {
        "id": 2,
        "user": "bluedrayco",
        "email": "bluedrayco@gmail.com"
    },
    {
        "id": 3,
        "user": "iscprincess",
        "email": "iscprincess@pipolusso.com"
    }
]